<?xml version="1.0" encoding="UTF-8" standalone="no"?>
<!-- Created with Inkscape (http://www.inkscape.org/) -->

<svg
   xmlns:dc="http://purl.org/dc/elements/1.1/"
   xmlns:cc="http://creativecommons.org/ns#"
   xmlns:rdf="http://www.w3.org/1999/02/22-rdf-syntax-ns#"
   xmlns:svg="http://www.w3.org/2000/svg"
   xmlns="http://www.w3.org/2000/svg"
   xmlns:sodipodi="http://sodipodi.sourceforge.net/DTD/sodipodi-0.dtd"
   xmlns:inkscape="http://www.inkscape.org/namespaces/inkscape"
   width="17pt"
   height="17pt"
   viewBox="0 0 21.250001 21.25"
   id="svg2"
   version="1.1"
   inkscape:version="0.91 r13725"
   sodipodi:docname="titchat.svg"
   inkscape:export-filename="/home/h4ck3r/Documents/ManuelDuMo/manueldumo/images/encarts/titchat.png"
   inkscape:export-xdpi="105.88235"
   inkscape:export-ydpi="105.88235">
  <defs
     id="defs4">
    <inkscape:perspective
       sodipodi:type="inkscape:persp3d"
       inkscape:vp_x="177.63636 : -336.83251 : 1"
       inkscape:vp_y="188.78056 : 123.04144 : 1"
       inkscape:vp_z="-581.97629 : 249.67899 : 1"
       inkscape:persp3d-origin="-539.34834 : -225.54551 : 1"
       id="perspective4154" />
  </defs>
  <sodipodi:namedview
     id="base"
     pagecolor="#ffffff"
     bordercolor="#666666"
     borderopacity="1.0"
     inkscape:pageopacity="0.0"
     inkscape:pageshadow="2"
     inkscape:zoom="8.1352941"
     inkscape:cx="-13.310456"
     inkscape:cy="16.599526"
     inkscape:document-units="px"
     inkscape:current-layer="g4985-7-5"
     showgrid="false"
     inkscape:window-width="1920"
     inkscape:window-height="1026"
     inkscape:window-x="0"
     inkscape:window-y="0"
     inkscape:window-maximized="1"
     units="pt" />
  <metadata
     id="metadata7">
    <rdf:RDF>
      <cc:Work
         rdf:about="">
        <dc:format>image/svg+xml</dc:format>
        <dc:type
           rdf:resource="http://purl.org/dc/dcmitype/StillImage" />
        <dc:title></dc:title>
      </cc:Work>
    </rdf:RDF>
  </metadata>
  <g
     inkscape:label="Calque 1"
     inkscape:groupmode="layer"
     id="layer1"
     transform="translate(0,-1031.1123)">
    <g
       transform="matrix(0.22639296,0,0,0.22639296,-194.58152,958.48589)"
       id="g4985-7-5">
      <path
         style="fill:#000000;fill-opacity:1"
         d="m 873.30342,321.48731 c 9.69358,76.27977 4.84683,38.13984 0,0 z m 56.54334,12.65399 -25.25564,0.1599 -21.70287,-0.6033 c -10.11419,-20.69427 -16.74855,-2.27975 -16.90697,11.50785 l 0,31.31065 c 0,20.17815 13.60961,36.42262 30.51484,36.42262 l 22.2167,0 c 16.90523,0 30.51484,-16.24447 30.51484,-36.42262 l 0,-31.31065 c -3.09492,-28.18593 -10.78848,-24.64564 -19.3809,-11.06445 z"
         id="rect3702-8-9-6"
         inkscape:connector-curvature="0"
         sodipodi:nodetypes="ccccccsssscc" />
      <g
         transform="translate(116.34193,-241.78211)"
         id="g4981-7-1"
         style="fill:#ffffff;fill-opacity:1">
        <rect
           ry="1.8772717"
           y="624.96143"
           x="783.03888"
           height="3.7545433"
           width="14.079537"
           id="rect4964-5-2"
           style="opacity:1;fill:#ffffff;fill-opacity:1;stroke:none;stroke-width:1.5;stroke-linejoin:round;stroke-miterlimit:4;stroke-dasharray:none;stroke-dashoffset:0;stroke-opacity:1" />
        <rect
           transform="matrix(0,-1,1,0,0,0)"
           ry="1.8772717"
           y="787.94867"
           x="-633.80627"
           height="3.7545433"
           width="7.3646812"
           id="rect4964-3-9-7"
           style="opacity:1;fill:#ffffff;fill-opacity:1;stroke:none;stroke-width:1.5;stroke-linejoin:round;stroke-miterlimit:4;stroke-dasharray:none;stroke-dashoffset:0;stroke-opacity:1" />
      </g>
      <ellipse
         style="opacity:1;fill:#ffffff;fill-opacity:0.94117647;stroke:none;stroke-width:3;stroke-miterlimit:4;stroke-dasharray:none;stroke-opacity:1"
         id="path6827-7-8-2-3-0"
         cx="885.99921"
         cy="362.69485"
         rx="11.310331"
         ry="10.823176" />
      <ellipse
         style="opacity:1;fill:#000000;fill-opacity:1;stroke:none;stroke-width:3;stroke-miterlimit:4;stroke-dasharray:none;stroke-opacity:1"
         id="path6578-3-8-4-5-6-3-9-7"
         cx="885.95935"
         cy="363.28964"
         rx="4.2880826"
         ry="4.0856504" />
      <ellipse
         style="opacity:1;fill:#ffffff;fill-opacity:0.94117647;stroke:none;stroke-width:3;stroke-miterlimit:4;stroke-dasharray:none;stroke-opacity:1"
         id="path6827-7-8-2-3-0-3"
         cx="928.59259"
         cy="362.83118"
         rx="11.310331"
         ry="10.823176" />
      <ellipse
         style="opacity:1;fill:#000000;fill-opacity:1;stroke:none;stroke-width:3;stroke-miterlimit:4;stroke-dasharray:none;stroke-opacity:1"
         id="path6578-3-8-4-5-6-3-9-7-6"
         cx="928.55273"
         cy="363.42596"
         rx="4.2880826"
         ry="4.0856504" />
    </g>
  </g>
</svg>
